{
  "static/js/0.3151478a.chunk.js": "/static/js/0.3151478a.chunk.js",
  "static/js/0.3151478a.chunk.js.map": "/static/js/0.3151478a.chunk.js.map",
  "static/js/1.1e4a5765.chunk.js": "/static/js/1.1e4a5765.chunk.js",
  "static/js/1.1e4a5765.chunk.js.map": "/static/js/1.1e4a5765.chunk.js.map",
  "static/js/2.78fcdae3.chunk.js": "/static/js/2.78fcdae3.chunk.js",
  "static/js/2.78fcdae3.chunk.js.map": "/static/js/2.78fcdae3.chunk.js.map",
  "main.js": "/static/js/main.d6c545a0.chunk.js",
  "main.js.map": "/static/js/main.d6c545a0.chunk.js.map",
  "static/js/4.c43dccd7.chunk.js": "/static/js/4.c43dccd7.chunk.js",
  "static/js/4.c43dccd7.chunk.js.map": "/static/js/4.c43dccd7.chunk.js.map",
  "static/js/5.c225195a.chunk.js": "/static/js/5.c225195a.chunk.js",
  "static/js/5.c225195a.chunk.js.map": "/static/js/5.c225195a.chunk.js.map",
  "static/js/6.ecd63ba5.chunk.js": "/static/js/6.ecd63ba5.chunk.js",
  "static/js/6.ecd63ba5.chunk.js.map": "/static/js/6.ecd63ba5.chunk.js.map",
  "static/js/7.0df899f6.chunk.js": "/static/js/7.0df899f6.chunk.js",
  "static/js/7.0df899f6.chunk.js.map": "/static/js/7.0df899f6.chunk.js.map",
  "static/js/8.7474875b.chunk.js": "/static/js/8.7474875b.chunk.js",
  "static/js/8.7474875b.chunk.js.map": "/static/js/8.7474875b.chunk.js.map",
  "static/js/9.bb405f3f.chunk.js": "/static/js/9.bb405f3f.chunk.js",
  "static/js/9.bb405f3f.chunk.js.map": "/static/js/9.bb405f3f.chunk.js.map",
  "static/js/10.517a9440.chunk.js": "/static/js/10.517a9440.chunk.js",
  "static/js/10.517a9440.chunk.js.map": "/static/js/10.517a9440.chunk.js.map",
  "static/js/11.af4adc92.chunk.js": "/static/js/11.af4adc92.chunk.js",
  "static/js/11.af4adc92.chunk.js.map": "/static/js/11.af4adc92.chunk.js.map",
  "static/js/12.92f119b8.chunk.js": "/static/js/12.92f119b8.chunk.js",
  "static/js/12.92f119b8.chunk.js.map": "/static/js/12.92f119b8.chunk.js.map",
  "static/js/13.437da0f0.chunk.js": "/static/js/13.437da0f0.chunk.js",
  "static/js/13.437da0f0.chunk.js.map": "/static/js/13.437da0f0.chunk.js.map",
  "static/js/14.b990d504.chunk.js": "/static/js/14.b990d504.chunk.js",
  "static/js/14.b990d504.chunk.js.map": "/static/js/14.b990d504.chunk.js.map",
  "static/js/15.5ff760c7.chunk.js": "/static/js/15.5ff760c7.chunk.js",
  "static/js/15.5ff760c7.chunk.js.map": "/static/js/15.5ff760c7.chunk.js.map",
  "static/js/16.80df1140.chunk.js": "/static/js/16.80df1140.chunk.js",
  "static/js/16.80df1140.chunk.js.map": "/static/js/16.80df1140.chunk.js.map",
  "static/js/17.505ccade.chunk.js": "/static/js/17.505ccade.chunk.js",
  "static/js/17.505ccade.chunk.js.map": "/static/js/17.505ccade.chunk.js.map",
  "static/js/18.ede21019.chunk.js": "/static/js/18.ede21019.chunk.js",
  "static/js/18.ede21019.chunk.js.map": "/static/js/18.ede21019.chunk.js.map",
  "static/js/19.c0ebb8f2.chunk.js": "/static/js/19.c0ebb8f2.chunk.js",
  "static/js/19.c0ebb8f2.chunk.js.map": "/static/js/19.c0ebb8f2.chunk.js.map",
  "static/js/20.a1753ede.chunk.js": "/static/js/20.a1753ede.chunk.js",
  "static/js/20.a1753ede.chunk.js.map": "/static/js/20.a1753ede.chunk.js.map",
  "static/js/21.b6361f46.chunk.js": "/static/js/21.b6361f46.chunk.js",
  "static/js/21.b6361f46.chunk.js.map": "/static/js/21.b6361f46.chunk.js.map",
  "static/js/22.7418c45e.chunk.js": "/static/js/22.7418c45e.chunk.js",
  "static/js/22.7418c45e.chunk.js.map": "/static/js/22.7418c45e.chunk.js.map",
  "static/js/23.2e28afee.chunk.js": "/static/js/23.2e28afee.chunk.js",
  "static/js/23.2e28afee.chunk.js.map": "/static/js/23.2e28afee.chunk.js.map",
  "static/js/24.988e176e.chunk.js": "/static/js/24.988e176e.chunk.js",
  "static/js/24.988e176e.chunk.js.map": "/static/js/24.988e176e.chunk.js.map",
  "static/js/25.3b02fb47.chunk.js": "/static/js/25.3b02fb47.chunk.js",
  "static/js/25.3b02fb47.chunk.js.map": "/static/js/25.3b02fb47.chunk.js.map",
  "static/js/26.ae323c81.chunk.js": "/static/js/26.ae323c81.chunk.js",
  "static/js/26.ae323c81.chunk.js.map": "/static/js/26.ae323c81.chunk.js.map",
  "runtime~main.js": "/static/js/runtime~main.8f19cdcf.js",
  "runtime~main.js.map": "/static/js/runtime~main.8f19cdcf.js.map",
  "index.html": "/index.html",
  "precache-manifest.0b8938c0232f006671ba65a32bc8bb3a.js": "/precache-manifest.0b8938c0232f006671ba65a32bc8bb3a.js",
  "service-worker.js": "/service-worker.js"
}